messydata
…
# inspect
boys

# A tibble: 61 × 11
   Rank...1 Name...2 Count...3 `since 2014...4` `since 2005...5` ...6  Rank...7
   <chr>    <chr>        <dbl> <chr>            <chr>            <lgl> <chr>   
 1 <NA>     <NA>            NA <NA>             <NA>             NA    <NA>    
 2 1        OLIVER        6941 ­                 +4               NA    51      
 3 2        JACK          5371 ­                 -1               NA    52      
 4 3        HARRY         5308 ­                 +6               NA    53      
 5 4        GEORGE        4869 +3               +13              NA    54      
 6 5        JACOB         4850 -1               +16              NA    55      
 7 6        CHARLIE       4831 -1               +6               NA    56      
 8 7        NOAH          4148 +4               +44              NA    57      
 9 8        WILLIAM       4083 +2               ­                 NA    58      
10 9        THOMAS        4075 -3               -6               NA    59      
# ℹ 51 more rows
# ℹ 4 more variables: Name...8 <chr>, Count...9 <dbl>, `since 2014...10` <chr>,
#   `since 2005...11` <chr>
…
Finally, we re-arrange the data by stacking them in a three-column format.

# stack columns
boys_long <- bind_rows(boys[,1:3], boys[,4:6])

New names:
New names:
• `Rank...1` -> `Rank`
• `Name...2` -> `Name`
• `Count...3` -> `Count`

# inspect result
boys_long

# A tibble: 114 × 3
   Rank  Name    Count
   <chr> <chr>   <dbl>
 1 1     OLIVER   6941
 2 2     JACK     5371
 3 3     HARRY    5308
 4 4     GEORGE   4869
 5 5     JACOB    4850
 6 6     CHARLIE  4831
 7 7     NOAH     4148
 8 8     WILLIAM  4083
 9 9     THOMAS   4075
10 10    OSCAR    4066
# ℹ 104 more rows
