Data Handling: Import, Cleaning and Visualisation
…
Slight differences in the manipulation and representation of
data.

See Tibble
vs. DataFrame for more details.

We can convert a data frame into a tibble using the function
as_tibble().

library(tidyverse)

as_tibble(swiss)

## # A tibble: 47 × 6
##    Fertility Agriculture Examination Education Catholic Infant.Mortality
##        <dbl>       <dbl>       <int>     <int>    <dbl>            <dbl>
##  1      80.2        17            15        12     9.96             22.2
##  2      83.1        45.1           6         9    84.8              22.2
##  3      92.5        39.7           5         5    93.4              20.2
##  4      85.8        36.5          12         7    33.8              20.3
##  5      76.9        43.5          17        15     5.16             20.6
##  6      76.1        35.3           9         7    90.6              26.6
##  7      83.8        70.2          16         7    92.8              23.6
##  8      92.4        67.8          14         8    97.2              24.9
##  9      82.4        53.3          12         7    97.7              21  
## 10      82.9        45.2          16        13    91.4              24.4
## # ℹ 37 more rows
…
## Rows: 47 Columns: 7
## ── Column specification ────────────────────────────────────────────────────────────────────────────
## Delimiter: ","
## chr (1): District
## dbl (6): Fertility, Agriculture, Examination, Education, Catholic, Infant.Mortality
## 
## ℹ Use `spec()` to retrieve the full column specification for this data.
## ℹ Specify the column types or set `show_col_types = FALSE` to quiet this message.

In either case, the result is a tibble:

swiss

## # A tibble: 47 × 7
##    District     Fertility Agriculture Examination Education Catholic Infant.Mortality
##    <chr>            <dbl>       <dbl>       <dbl>     <dbl>    <dbl>            <dbl>
##  1 Courtelary        80.2        17            15        12     9.96             22.2
##  2 Delemont          83.1        45.1           6         9    84.8              22.2
##  3 Franches-Mnt      92.5        39.7           5         5    93.4              20.2
##  4 Moutier           85.8        36.5          12         7    33.8              20.3
##  5 Neuveville        76.9        43.5          17        15     5.16             20.6
##  6 Porrentruy        76.1        35.3           9         7    90.6              26.6
##  7 Broye             83.8        70.2          16         7    92.8              23.6
##  8 Glane             92.4        67.8          14         8    97.2              24.9
##  9 Gruyere           82.4        53.3          12         7    97.7              21  
## 10 Sarine            82.9        45.2          16        13    91.4              24.4
## # ℹ 37 more rows
…
